…
gids <- wb_load_gene_ids("WS273")
s2i("unc-10", gids)
#> [1] "WBGene00006750"
i2s(c("WBGene00006752", "WBGene00004412"), gids)
#> [1] "unc-13" "rpl-1"
```

## Example reading gene coordinates

``` r
gene_coords <- wbData::wb_load_gene_coords(273)
gene_coords
#> # A tibble: 46,911 x 7
#>    gene_id       chr   start   end strand position                 gene_biotype 
#>    <chr>         <chr> <dbl> <dbl> <chr>  <chr>                    <chr>        
#>  1 WBGene000144~ MtDNA     1    55 +      MtDNA:         1-      ~ tRNA         
#>  2 WBGene000144~ MtDNA    58   111 +      MtDNA:        58-      ~ tRNA         
#>  3 WBGene000109~ MtDNA   113   549 +      MtDNA:       113-      ~ protein_codi~
#>  4 WBGene000109~ MtDNA   549   783 +      MtDNA:       549-      ~ protein_codi~
#>  5 WBGene000144~ MtDNA   785   840 +      MtDNA:       785-      ~ tRNA         
#>  6 WBGene000144~ MtDNA   842   896 +      MtDNA:       842-      ~ tRNA         
#>  7 WBGene000144~ MtDNA   898  1593 +      MtDNA:       898-     1~ rRNA         
#>  8 WBGene000144~ MtDNA  1595  1646 +      MtDNA:     1,595-     1~ tRNA         
#>  9 WBGene000144~ MtDNA  1648  1702 +      MtDNA:     1,648-     1~ tRNA         
#> 10 WBGene000144~ MtDNA  1707  1761 +      MtDNA:     1,707-     1~ tRNA         
#> # ... with 46,901 more rows
```
…
